{
  "1001": {
    "ID": 1001,
    "Name": "拜访埃布尔",
    "LimitLevel": 1,
    "LimitClass": 0,
    "PreQuest": 0,
    "Type": "MAIN",
    "AcceptNPC": 1,
    "SubmitNPC": 3,
    "Overview": "前往拜访埃布尔，听取他的建议",
    "Dialog": "“XXX，你终于成年啦！以后你就要开始为村庄贡献一份自己的力量啦！但是，在这之前，你需要去拜访一些长辈，他们会给到你一些建议和帮助~你可以先去拜访下埃布尔，他可是落日空间的看守者。不过他行踪不定，快去找找吧，去晚了可能就碰不到了，我在这等你回来哟。”",
    "DialogAccept": "“等你回来哟”",
    "DialogDeny": "“我建议你还是要去拜访下埃布尔哦~”",
    "DialogFinish": "“是莉莉丝让你来的吧，她总是介绍刚成年的孩子到我这来（埃布尔脸上出现无奈的表情）。自我介绍下，我是落日空间的看守者，我估计你连落日空间是什么都不知道吧？现在还不是告知你这些的时候，等你再强大一些再来找我吧！”",
    "Target1": "None",
    "Target1ID": 0,
    "Target1Num": 0,
    "Target2": "None",
    "Target2ID": 0,
    "Target2Num": 0,
    "Target3": "None",
    "Target3ID": 0,
    "Target3Num": 0,
    "RewardGold": 300,
    "RewardExp": 2000,
    "RewardItem1": 1,
    "RewardItem1Count": 5,
    "RewardItem2": 2,
    "RewardItem2Count": 10,
    "RewardItem3": 3,
    "RewardItem3Count": 10
  },
  "1002": {
    "ID": 1002,
    "Name": "拜访奥德利奇",
    "LimitLevel": 1,
    "LimitClass": 0,
    "PreQuest": 1001,
    "Type": "MAIN",
    "AcceptNPC": 3,
    "SubmitNPC": 4,
    "Overview": "找到奥德利奇，获取装备",
    "Dialog": "“我建议你先去落日森林游历一翻，提升下自己的实力。不过在你去落日森林之前，我建议你去找下奥德利奇，他那出售一些装备，可以给你提供一些基础的防护。快去吧，他就在村庄的西北部。”",
    "DialogAccept": "“奥德利奇又要出血啦，哈哈”",
    "DialogDeny": "“奥德利奇那有能保护你的东西，新人都会他那里逛一逛”",
    "DialogFinish": "“哟哟哟，这是谁呀，我们的XXX长这么大啦，怎么，准备出村庄历练一翻吗？真勇敢！我看好你！这样，我这装备也有限，暂且先送你一把武器和一个副手好了，其他的得你花钱来我这买了，不然我都没钱进材料了！（奥德里奇慢慢递过来了武器和副手，脸上出现肉疼的表情）”",
    "Target1": "None",
    "Target1ID": 0,
    "Target1Num": 0,
    "Target2": "None",
    "Target2ID": 0,
    "Target2Num": 0,
    "Target3": "None",
    "Target3ID": 0,
    "Target3Num": 0,
    "RewardGold": 500,
    "RewardExp": 2000,
    "RewardItem1": 4,
    "RewardItem1Count": 10,
    "RewardItem2": 7,
    "RewardItem2Count": 1,
    "RewardItem3": 8,
    "RewardItem3Count": 1
  },
  "1003": {
    "ID": 1003,
    "Name": "拜访多丽丝",
    "LimitLevel": 1,
    "LimitClass": 0,
    "PreQuest": 1002,
    "Type": "MAIN",
    "AcceptNPC": 4,
    "SubmitNPC": 2,
    "Overview": "找到多丽丝，获取一些补给",
    "Dialog": "“等等，别急着走，听我把话说完，你光有装备不行，出门在外总要带些食物和药品做补给。去找多丽丝吧，她是莉莉丝的孪生姐妹，她会送你些补给的（不能光让我一个人出血，奥德利奇小声嘀咕着）”",
    "DialogAccept": "“不能只有我一个人出血,哈哈”",
    "DialogDeny": "“唉唉唉，你要听我的，总不能饿死吧”",
    "DialogFinish": "“我猜肯定是奥德里奇让你来找我的吧，还和你说我这能免费给你食物和药品对吧。唉，算了算了，谁让莉莉丝看中你了呢，作为她的姐姐，我也不能太小气（多丽丝跺了跺脚）。诺，拿着吧，这是你要的补给，虽然不多，但是也够你用一阵子了。对了，后面需要补给记得来照顾我生意哦~嘻嘻。”",
    "Target1": "None",
    "Target1ID": 0,
    "Target1Num": 0,
    "Target2": "None",
    "Target2ID": 0,
    "Target2Num": 0,
    "Target3": "None",
    "Target3ID": 0,
    "Target3Num": 0,
    "RewardGold": 700,
    "RewardExp": 2000
  },
  "1004": {
    "ID": 1004,
    "Name": "回访莉莉丝",
    "LimitLevel": 1,
    "LimitClass": 0,
    "PreQuest": 1003,
    "Type": "MAIN",
    "AcceptNPC": 2,
    "SubmitNPC": 1,
    "Overview": "回访莉莉丝，看看她有什么烦恼",
    "Dialog": "“我听说最近我妹妹那里有一些烦心事，\n你最好还是去看看她，说不定能帮上\n一些忙。对了，千万不要让她知道我\n和你说的哦”",
    "DialogAccept": "“你真好”",
    "DialogDeny": "“莉莉丝太不容易了，好希望有个人能帮帮她”",
    "DialogFinish": "“你怎么知道我有烦心事？肯定是多丽丝和你说的吧！别不承认！~我这个姐姐啊表面冷淡，其实还是很关心我的呢~嘻嘻。对了，这些钱你拿着，再去补给些装备和药品。我的确有个任务给你，等你回来我再和你说具体的情况”",
    "Target1": "None",
    "Target1ID": 0,
    "Target1Num": 0,
    "Target2": "None",
    "Target2ID": 0,
    "Target2Num": 0,
    "Target3": "None",
    "Target3ID": 0,
    "Target3Num": 0,
    "RewardGold": 900,
    "RewardExp": 2000,
    "RewardItem1": 6,
    "RewardItem1Count": 33,
    "RewardItem2": 9,
    "RewardItem2Count": 1
  },
  "2001": {
    "ID": 2001,
    "Name": "莉莉丝的困扰",
    "LimitLevel": 5,
    "LimitClass": 0,
    "PreQuest": 1004,
    "Type": "MAIN",
    "AcceptNPC": 1,
    "SubmitNPC": 1,
    "Overview": "探索落日森林，找到一只恶鬼并击杀",
    "Dialog": "“补给买完了吗？事情是这样的，最近有村民反映落日森林有恶鬼出没，不知道是真是假。我希望你能去趟落日森林帮我证实一下。”",
    "DialogAccept": "“快去快回”",
    "DialogDeny": "“怎么办，村庄存在安全隐患，谁能帮忙呢？”",
    "DialogIncomplete": "“找到恶鬼了吗”",
    "DialogFinish": "“天呐，落日森林真的有恶鬼存在！而且你还看到了不止一只？！（莉莉丝脸上浮现疑惑的表情）",
    "Target1": "Kill",
    "Target1ID": 1,
    "Target1Num": 1,
    "Target2": "None",
    "Target2ID": 1,
    "Target2Num": 0,
    "Target3": "None",
    "Target3ID": 0,
    "Target3Num": 0,
    "RewardGold": 1000,
    "RewardExp": 3000,
    "RewardItem1": 6,
    "RewardItem1Count": 33,
    "RewardItem2": 10,
    "RewardItem2Count": 1
  },
  "2002": {
    "ID": 2002,
    "Name": "深入落日森林",
    "LimitLevel": 5,
    "LimitClass": 0,
    "PreQuest": 2001,
    "Type": "MAIN",
    "AcceptNPC": 1,
    "SubmitNPC": 1,
    "Overview": "深入落日森林，杀死10只恶鬼",
    "Dialog": "“XXX，恐怕要再麻烦你一趟了，村里有一些村民要上山采药，麻烦你帮他们把恶鬼都清理干净，避免他们受到恶鬼的伤害。”",
    "DialogAccept": "“靠你了”",
    "DialogDeny": "“村民出了门，这可怎么办呢？”",
    "DialogIncomplete": "“恶鬼清理干净了吗”",
    "DialogFinish": "“XXX，你真的是太厉害了！不过村民上山采药发现了更了不得的事情，你听我说。。。”",
    "Target1": "Kill",
    "Target1ID": 1,
    "Target1Num": 10,
    "Target2": "None",
    "Target2ID": 1,
    "Target2Num": 0,
    "Target3": "None",
    "Target3ID": 0,
    "Target3Num": 0,
    "RewardGold": 1000,
    "RewardExp": 5000
  },
  "2003": {
    "ID": 2003,
    "Name": "消灭山丘巨人",
    "LimitLevel": 5,
    "LimitClass": 1,
    "PreQuest": 2002,
    "Type": "MAIN",
    "AcceptNPC": 1,
    "SubmitNPC": 1,
    "Overview": "到落日森林尽头消灭山丘巨人",
    "Dialog": "“村民上山采药的时候居然在森林的尽头发现了山丘巨人！普通的山丘巨人是一种很友善的生物，但是这只却不同！它的外表貌似发生了些变异，而且具有攻击性！XXX，你能帮消灭掉这只山丘巨人吗？”",
    "DialogAccept": "“多加小心”",
    "DialogDeny": "“森林里居然有变异的山丘巨人！太可怕了！”",
    "DialogIncomplete": "“打倒山丘巨人了吗？”",
    "DialogFinish": "“呼，XXX，你终于平安归来了！害我担心死了。落日森林的异常我已经和埃布尔说明了，他好像知道些什么，他让我转告你回来了去找他一趟”",
    "Target1": "Kill",
    "Target1ID": 2,
    "Target1Num": 1,
    "Target2": "None",
    "Target2ID": 2,
    "Target2Num": 0,
    "Target3": "None",
    "Target3ID": 0,
    "Target3Num": 0,
    "RewardGold": 2000,
    "RewardExp": 10000,
    "RewardItem1": 1011,
    "RewardItem1Count": 1,
    "RewardItem2": 1012,
    "RewardItem2Count": 1
  },
  "2004": {
    "ID": 2004,
    "Name": "进入落日空间",
    "LimitLevel": 10,
    "LimitClass": 1,
    "PreQuest": 2003,
    "Type": "MAIN",
    "AcceptNPC": 3,
    "SubmitNPC": 3,
    "Overview": "进入落日空间，并探查能量异常的源头",
    "Dialog": "“XXX，你来了，你是一个真正的勇士，因为只有真正的勇士才能独立战胜山丘巨人！落日森林的异变和落日空间脱离不了关系。近期，我感受到了落日空间中有异常的能量波动。我需要你带一队人马去落日空间查看一番，帮我找到异常能量的源头。\n",
    "DialogAccept": "“多喊几个朋友帮忙，希望你们平安归来”",
    "DialogDeny": "“真正的勇士是敢于接受挑战的！”",
    "DialogIncomplete": "“找到异常能量的源头了吗？”",
    "DialogFinish": "“落日空间居然孕育出了死神这样的邪恶物种！幸好它还不是很强大。你在这次任务中表现的很出色，请接受布林镇村民的馈赠”",
    "Target1": "Kill",
    "Target1ID": 3,
    "Target1Num": 5,
    "Target2": "Kill",
    "Target2ID": 4,
    "Target2Num": 5,
    "Target3": "Kill",
    "Target3ID": 5,
    "Target3Num": 5,
    "RewardGold": 10000,
    "RewardExp": 50000,
    "RewardItem1": 1013,
    "RewardItem1Count": 1
  },
  "2005": {
    "ID": 2005,
    "Name": "消灭山丘巨人",
    "LimitLevel": 5,
    "LimitClass": 2,
    "PreQuest": 2004,
    "Type": "MAIN",
    "AcceptNPC": 1,
    "SubmitNPC": 1,
    "Overview": "到落日森林尽头消灭山丘巨人",
    "Dialog": "“村民上山采药的时候居然在森林的尽头发现了山丘巨人！普通的山丘巨人是一种很友善的生物，但是这只却不同！它的外表貌似发生了些变异，而且具有攻击性！XXX，你能帮消灭掉这只山丘巨人吗？”",
    "DialogAccept": "“多加小心”",
    "DialogDeny": "“森林里居然有变异的山丘巨人！太可怕了！”",
    "DialogIncomplete": "“打倒山丘巨人了吗？”",
    "DialogFinish": "“呼，XXX，你终于平安归来了！害我担心死了。落日森林的异常我已经和埃布尔说明了，他好像知道些什么，他让我转告你回来了去找他一趟”",
    "Target1": "Kill",
    "Target1ID": 4,
    "Target1Num": 9,
    "Target2": "None",
    "Target2ID": 6,
    "Target2Num": 10,
    "Target3": "None",
    "Target3ID": 10,
    "Target3Num": 10,
    "RewardGold": 18000,
    "RewardExp": 90000,
    "RewardItem1": 2011,
    "RewardItem1Count": 1,
    "RewardItem2": 2012,
    "RewardItem2Count": 1
  },
  "2006": {
    "ID": 2006,
    "Name": "进入落日空间",
    "LimitLevel": 10,
    "LimitClass": 2,
    "PreQuest": 2005,
    "Type": "MAIN",
    "AcceptNPC": 3,
    "SubmitNPC": 3,
    "Overview": "进入落日空间，并探查能量异常的源头",
    "Dialog": "“XXX，你来了，你是一个真正的勇士，因为只有真正的勇士才能独立战胜山丘巨人！落日森林的异变和落日空间脱离不了关系。近期，我感受到了落日空间中有异常的能量波动。我需要你带一队人马去落日空间查看一番，帮我找到异常能量的源头。\n",
    "DialogAccept": "“多喊几个朋友帮忙，希望你们平安归来”",
    "DialogDeny": "“真正的勇士是敢于接受挑战的！”",
    "DialogIncomplete": "“找到异常能量的源头了吗？”",
    "DialogFinish": "“落日空间居然孕育出了死神这样的邪恶物种！幸好它还不是很强大。你在这次任务中表现的很出色，请接受布林镇村民的馈赠”",
    "Target1": "Kill",
    "Target1ID": 5,
    "Target1Num": 13,
    "Target2": "Kill",
    "Target2ID": 8,
    "Target2Num": 15,
    "Target3": "Kill",
    "Target3ID": 15,
    "Target3Num": 15,
    "RewardGold": 26000,
    "RewardExp": 130000,
    "RewardItem1": 2013,
    "RewardItem1Count": 1
  },
  "2007": {
    "ID": 2007,
    "Name": "消灭山丘巨人",
    "LimitLevel": 5,
    "LimitClass": 3,
    "PreQuest": 2006,
    "Type": "MAIN",
    "AcceptNPC": 1,
    "SubmitNPC": 1,
    "Overview": "到落日森林尽头消灭山丘巨人",
    "Dialog": "“村民上山采药的时候居然在森林的尽头发现了山丘巨人！普通的山丘巨人是一种很友善的生物，但是这只却不同！它的外表貌似发生了些变异，而且具有攻击性！XXX，你能帮消灭掉这只山丘巨人吗？”",
    "DialogAccept": "“多加小心”",
    "DialogDeny": "“森林里居然有变异的山丘巨人！太可怕了！”",
    "DialogIncomplete": "“打倒山丘巨人了吗？”",
    "DialogFinish": "“呼，XXX，你终于平安归来了！害我担心死了。落日森林的异常我已经和埃布尔说明了，他好像知道些什么，他让我转告你回来了去找他一趟”",
    "Target1": "Kill",
    "Target1ID": 6,
    "Target1Num": 17,
    "Target2": "None",
    "Target2ID": 10,
    "Target2Num": 20,
    "Target3": "None",
    "Target3ID": 20,
    "Target3Num": 20,
    "RewardGold": 34000,
    "RewardExp": 170000,
    "RewardItem1": 3011,
    "RewardItem1Count": 1,
    "RewardItem2": 3012,
    "RewardItem2Count": 1
  },
  "2008": {
    "ID": 2008,
    "Name": "进入落日空间",
    "LimitLevel": 10,
    "LimitClass": 3,
    "PreQuest": 2007,
    "Type": "MAIN",
    "AcceptNPC": 3,
    "SubmitNPC": 3,
    "Overview": "进入落日空间，并探查能量异常的源头",
    "Dialog": "“XXX，你来了，你是一个真正的勇士，因为只有真正的勇士才能独立战胜山丘巨人！落日森林的异变和落日空间脱离不了关系。近期，我感受到了落日空间中有异常的能量波动。我需要你带一队人马去落日空间查看一番，帮我找到异常能量的源头。\n",
    "DialogAccept": "“多喊几个朋友帮忙，希望你们平安归来”",
    "DialogDeny": "“真正的勇士是敢于接受挑战的！”",
    "DialogIncomplete": "“找到异常能量的源头了吗？”",
    "DialogFinish": "“落日空间居然孕育出了死神这样的邪恶物种！幸好它还不是很强大。你在这次任务中表现的很出色，请接受布林镇村民的馈赠”",
    "Target1": "Kill",
    "Target1ID": 7,
    "Target1Num": 21,
    "Target2": "Kill",
    "Target2ID": 12,
    "Target2Num": 25,
    "Target3": "Kill",
    "Target3ID": 25,
    "Target3Num": 25,
    "RewardGold": 42000,
    "RewardExp": 210000,
    "RewardItem1": 3013,
    "RewardItem1Count": 1
  },
  "3001": {
    "ID": 3001,
    "Name": "帮多丽丝送信",
    "LimitLevel": 5,
    "LimitClass": 0,
    "Type": "BRANCH",
    "AcceptNPC": 1,
    "SubmitNPC": 1,
    "Overview": "将多丽丝的信安全送到莉莉丝手上",
    "Dialog": "“XXX，能不能帮我一个小忙，帮我给我的妹妹莉莉丝送一封信，一定要送到她手上哦！~”",
    "DialogAccept": "“不许偷看哦~”",
    "DialogDeny": "“这年头，连邮差都找不到！~”",
    "DialogIncomplete": "“你找我有什么事吗？”",
    "DialogFinish": "“咦，这是多丽丝给我的信吗？都在一个村里还写信，我这个姐姐啊真是个文艺范。~”",
    "Target1": "Item",
    "Target1ID": 1001,
    "Target1Num": 1,
    "Target2": "None",
    "Target2ID": 0,
    "Target2Num": 0,
    "Target3": "None",
    "Target3ID": 0,
    "Target3Num": 0,
    "RewardGold": 1000,
    "RewardExp": 3000,
    "RewardItem1": 9,
    "RewardItem1Count": 1
  }
}