{
  "1": {
    "TID": 1,
    "Name": "战士",
    "Type": "Normal",
    "Class": "WARRIOR",
    "Resource": "role/warrior.ab",
    "InitLevel": 1,
    "Height": 1.5,
    "Speed": 400,
    "MaxHP": 260.0,
    "MaxMP": 180.0,
    "GrowthSTR": 5.5,
    "GrowthINT": 1.5,
    "GrowthDEX": 2.0,
    "STR": 10.0,
    "INT": 3.0,
    "DEX": 5.0,
    "AD": 20.0,
    "AP": 25.0,
    "DEF": 15.0,
    "MDEF": 9.0,
    "SPD": 59.0,
    "CRI": 0.02
  },
  "2": {
    "TID": 2,
    "Name": "法师",
    "Type": "Normal",
    "Class": "WIZARD",
    "Resource": "role/wizard.ab",
    "InitLevel": 1,
    "Height": 1.5,
    "Speed": 300,
    "MaxHP": 270.0,
    "MaxMP": 290.0,
    "GrowthSTR": 1.5,
    "GrowthINT": 5.0,
    "GrowthDEX": 2.5,
    "STR": 3.0,
    "INT": 10.0,
    "DEX": 5.0,
    "AD": 25.0,
    "AP": 20.0,
    "DEF": 9.0,
    "MDEF": 15.0,
    "SPD": 69.0,
    "CRI": 0.02
  },
  "3": {
    "TID": 3,
    "Name": "弓箭手",
    "Type": "Normal",
    "Class": "ARCHER",
    "Resource": "role/archer.ab",
    "InitLevel": 1,
    "Height": 1.5,
    "Speed": 300,
    "MaxHP": 250.0,
    "MaxMP": 260.0,
    "GrowthSTR": 3.5,
    "GrowthINT": 1.5,
    "GrowthDEX": 4.0,
    "STR": 7.0,
    "INT": 4.0,
    "DEX": 7.0,
    "AD": 25.0,
    "AP": 30.0,
    "DEF": 9.0,
    "MDEF": 15.0,
    "SPD": 78.0,
    "CRI": 0.05
  },
  "1001": {
    "TID": 1001,
    "Name": "恶鬼",
    "Type": "Normal",
    "Class": "WARRIOR",
    "Resource": "role/m1001.ab",
    "AI": "AIMonsterPassive",
    "InitLevel": 1,
    "Height": 1.8,
    "Speed": 300,
    "MaxHP": 500.0,
    "MaxMP": 250.0,
    "GrowthSTR": 3.0,
    "GrowthINT": 2.0,
    "GrowthDEX": 2.0,
    "STR": 15.0,
    "INT": 5.0,
    "DEX": 5.0,
    "AD": 40.0,
    "AP": 40.0,
    "DEF": 30.0,
    "MDEF": 30.0,
    "SPD": 60.0,
    "CRI": 0.01
  },
  "1002": {
    "TID": 1002,
    "Name": "山丘巨人",
    "Type": "Normal",
    "Class": "WARRIOR",
    "Resource": "role/m1002.ab",
    "AI": "AIMonsterPassive",
    "InitLevel": 1,
    "Height": 2.5,
    "Speed": 300,
    "MaxHP": 3000.0,
    "MaxMP": 500.0,
    "GrowthSTR": 3.0,
    "GrowthINT": 2.0,
    "GrowthDEX": 2.0,
    "STR": 20.0,
    "INT": 10.0,
    "DEX": 5.0,
    "AD": 100.0,
    "AP": 100.0,
    "DEF": 60.0,
    "MDEF": 60.0,
    "SPD": 60.0,
    "CRI": 0.03
  },
  "1003": {
    "TID": 1003,
    "Name": "小恶魔",
    "Type": "Normal",
    "Class": "WARRIOR",
    "Resource": "role/m1003.ab",
    "AI": "AIMonsterPassive",
    "InitLevel": 1,
    "Height": 2.0,
    "Speed": 300,
    "MaxHP": 2000.0,
    "MaxMP": 1000.0,
    "GrowthSTR": 3.0,
    "GrowthINT": 2.0,
    "GrowthDEX": 2.0,
    "STR": 15.0,
    "INT": 5.0,
    "DEX": 5.0,
    "AD": 200.0,
    "AP": 100.0,
    "DEF": 150.0,
    "MDEF": 150.0,
    "SPD": 60.0,
    "CRI": 0.01
  },
  "1004": {
    "TID": 1004,
    "Name": "骷髅兵",
    "Type": "Normal",
    "Class": "ARCHER",
    "Resource": "role/m1004.ab",
    "AI": "AIMonsterPassive",
    "InitLevel": 1,
    "Height": 1.5,
    "Speed": 300,
    "MaxHP": 2000.0,
    "MaxMP": 1000.0,
    "GrowthSTR": 3.0,
    "GrowthINT": 2.0,
    "GrowthDEX": 2.0,
    "STR": 15.0,
    "INT": 5.0,
    "DEX": 5.0,
    "AD": 200.0,
    "AP": 100.0,
    "DEF": 150.0,
    "MDEF": 150.0,
    "SPD": 60.0,
    "CRI": 0.01
  },
  "1005": {
    "TID": 1005,
    "Name": "死神",
    "Type": "Normal",
    "Class": "WIZARD",
    "Resource": "role/m1005.ab",
    "AI": "AIBoss",
    "InitLevel": 1,
    "Height": 2.0,
    "Speed": 300,
    "MaxHP": 20000.0,
    "MaxMP": 10000.0,
    "GrowthSTR": 3.0,
    "GrowthINT": 2.0,
    "GrowthDEX": 2.0,
    "STR": 50.0,
    "INT": 10.0,
    "DEX": 5.0,
    "AD": 400.0,
    "AP": 300.0,
    "DEF": 250.0,
    "MDEF": 250.0,
    "SPD": 60.0,
    "CRI": 0.05
  }
}